<svg width="16" height="16" viewBox="0 0 16 16" fill="none" xmlns="http://www.w3.org/2000/svg">
<g clip-path="url(#clip0_3_1372)">
<path fill-rule="evenodd" clip-rule="evenodd" d="M8.00016 0.833496C8.2763 0.833496 8.50016 1.05735 8.50016 1.3335V2.18796C11.323 2.42758 13.5727 4.67737 13.8124 7.50016H14.6668C14.943 7.50016 15.1668 7.72402 15.1668 8.00016C15.1668 8.2763 14.943 8.50016 14.6668 8.50016H13.8124C13.5727 11.323 11.323 13.5727 8.50016 13.8124V14.6668C8.50016 14.943 8.2763 15.1668 8.00016 15.1668C7.72402 15.1668 7.50016 14.943 7.50016 14.6668V13.8124C4.67737 13.5727 2.42758 11.323 2.18796 8.50016H1.3335C1.05735 8.50016 0.833496 8.2763 0.833496 8.00016C0.833496 7.72402 1.05735 7.50016 1.3335 7.50016H2.18796C2.42758 4.67737 4.67737 2.42758 7.50016 2.18796V1.3335C7.50016 1.05735 7.72402 0.833496 8.00016 0.833496ZM8.00016 3.16683C5.33079 3.16683 3.16683 5.33079 3.16683 8.00016C3.16683 10.6695 5.33079 12.8335 8.00016 12.8335C10.6695 12.8335 12.8335 10.6695 12.8335 8.00016C12.8335 5.33079 10.6695 3.16683 8.00016 3.16683ZM8.00016 6.50016C7.17174 6.50016 6.50016 7.17174 6.50016 8.00016C6.50016 8.82859 7.17174 9.50016 8.00016 9.50016C8.82859 9.50016 9.50016 8.82859 9.50016 8.00016C9.50016 7.17174 8.82859 6.50016 8.00016 6.50016ZM5.50016 8.00016C5.50016 6.61945 6.61945 5.50016 8.00016 5.50016C9.38087 5.50016 10.5002 6.61945 10.5002 8.00016C10.5002 9.38087 9.38087 10.5002 8.00016 10.5002C6.61945 10.5002 5.50016 9.38087 5.50016 8.00016Z" fill="white"/>
</g>
<defs>
<clipPath id="clip0_3_1372">
<rect width="16" height="16" fill="white"/>
</clipPath>
</defs>
</svg>
